<?xml version="1.0" encoding="UTF-8" standalone="no"?>
<!-- Generator: Adobe Illustrator 17.1.0, SVG Export Plug-In . SVG Version: 6.00 Build 0)  -->

<svg
        xmlns:dc="http://purl.org/dc/elements/1.1/"
        xmlns:cc="http://creativecommons.org/ns#"
        xmlns:rdf="http://www.w3.org/1999/02/22-rdf-syntax-ns#"
        xmlns="http://www.w3.org/2000/svg"
        xmlns:sodipodi="http://sodipodi.sourceforge.net/DTD/sodipodi-0.dtd"
        xmlns:inkscape="http://www.inkscape.org/namespaces/inkscape"
        version="1.1"
        viewBox="0 0 48 48"
        style="enable-background:new 0 0 48 48;"
        xml:space="preserve"
        id="svg4165"
        inkscape:version="0.91 r13725"
        sodipodi:docname="star-half.svg"><metadata
     id="metadata4176"><rdf:RDF><cc:Work
         rdf:about=""><dc:format>image/svg+xml</dc:format><dc:type
        rdf:resource="http://purl.org/dc/dcmitype/StillImage"/></cc:Work></rdf:RDF></metadata>
    <defs
            id="defs4174"/>
    <sodipodi:namedview
            pagecolor="#ffffff"
            bordercolor="#666666"
            borderopacity="1"
            objecttolerance="10"
            gridtolerance="10"
            guidetolerance="10"
            inkscape:pageopacity="0"
            inkscape:pageshadow="2"
            inkscape:window-width="1920"
            inkscape:window-height="1030"
            id="namedview4172"
            showgrid="false"
            inkscape:zoom="4.9166667"
            inkscape:cx="24"
            inkscape:cy="24"
            inkscape:window-x="0"
            inkscape:window-y="0"
            inkscape:window-maximized="1"
            inkscape:current-layer="svg4165"/>
    <g
            id="glyphicons"
            transform="matrix(1.9272464,0,0,1.9272267,-23.126958,-22.154445)"><g
       id="star-half"><path
         d="m 16.812,35.364 0.04,-0.029 -0.009,0.027 -0.031,0.002 z m 12.45,-8.907 2.909,8.85 -7.679,-5.508 -7.639,5.536 L 19.757,26.5 12,21.045 l 9.576,0 2.939,-9 0.031,0 2.922,9 9.438,0 -7.644,5.412 z m -0.883,3.702 -1.472,-4.476 3.79,-2.639 -4.683,0 -1.018,-3.135 0.004,0.01 0,7.777 3.379,2.463 z"
         id="path4169"
         inkscape:connector-curvature="0" /></g></g>
    <g
            id="Layer_2"/></svg>