<?xml version="1.0" encoding="UTF-8" standalone="no"?>
<!-- Generator: Adobe Illustrator 17.1.0, SVG Export Plug-In . SVG Version: 6.00 Build 0)  -->

<svg
        xmlns:dc="http://purl.org/dc/elements/1.1/"
        xmlns:cc="http://creativecommons.org/ns#"
        xmlns:rdf="http://www.w3.org/1999/02/22-rdf-syntax-ns#"
        xmlns="http://www.w3.org/2000/svg"
        xmlns:sodipodi="http://sodipodi.sourceforge.net/DTD/sodipodi-0.dtd"
        xmlns:inkscape="http://www.inkscape.org/namespaces/inkscape"
        version="1.1"
        viewBox="0 0 48 48"
        style="enable-background:new 0 0 48 48;"
        xml:space="preserve"
        id="svg4193"
        inkscape:version="0.91 r13725"
        sodipodi:docname="thumbs-up.svg"><metadata
     id="metadata4206"><rdf:RDF><cc:Work
         rdf:about=""><dc:format>image/svg+xml</dc:format><dc:type
        rdf:resource="http://purl.org/dc/dcmitype/StillImage"/></cc:Work></rdf:RDF></metadata>
    <defs
            id="defs4204"/>
    <sodipodi:namedview
            pagecolor="#ffffff"
            bordercolor="#666666"
            borderopacity="1"
            objecttolerance="10"
            gridtolerance="10"
            guidetolerance="10"
            inkscape:pageopacity="0"
            inkscape:pageshadow="2"
            inkscape:window-width="1920"
            inkscape:window-height="1030"
            id="namedview4202"
            showgrid="false"
            inkscape:zoom="4.9166667"
            inkscape:cx="24"
            inkscape:cy="24"
            inkscape:window-x="0"
            inkscape:window-y="0"
            inkscape:window-maximized="1"
            inkscape:current-layer="svg4193"/>
    <g
            id="glyphicons"
            transform="matrix(2,0,0,2,-24,-21)"><g
       id="thumbs-up"><polygon
         style="opacity:0.3"
         points="26,31 29,31 33,25 34,24 34,22 32,22 "
         id="polygon4197" /><path
            d="m 26,14 0,3 -1,5 9,0 0,2 -1,1 -4,6 -5,0 -2,-1 -2,0 0,-8 3,-4 2,-4 1,0 m 0,-2 -1,0 c -0.757,0 -1.45,0.428 -1.789,1.106 L 21.292,16.945 18.4,20.8 C 18.14,21.146 18,21.567 18,22 l 0,8 c 0,1.104 0.895,2 2,2 l 1.528,0 1.578,0.789 C 23.383,32.928 23.689,33 24,33 l 5,0 c 0.669,0 1.293,-0.334 1.664,-0.891 l 3.89,-5.835 0.86,-0.86 C 35.789,25.039 36,24.53 36,24 l 0,-2 c 0,-1.104 -0.896,-2 -2,-2 l -6.561,0 c 0,0 0.561,-2.868 0.561,-3 l 0,-3 c 0,-1.104 -0.896,-2 -2,-2 l 0,0 z m -10,8 -4,0 0,13 4,0 c 0.55,0 1,-0.45 1,-1 l 0,-11 c 0,-0.55 -0.45,-1 -1,-1 z"
            id="path4199"
            inkscape:connector-curvature="0"/></g></g>
    <g
            id="Layer_2"/></svg>