<?xml version="1.0" encoding="UTF-8" standalone="no"?>
<!-- Generator: Adobe Illustrator 17.1.0, SVG Export Plug-In . SVG Version: 6.00 Build 0)  -->

<svg
        xmlns:dc="http://purl.org/dc/elements/1.1/"
        xmlns:cc="http://creativecommons.org/ns#"
        xmlns:rdf="http://www.w3.org/1999/02/22-rdf-syntax-ns#"
        xmlns="http://www.w3.org/2000/svg"
        xmlns:sodipodi="http://sodipodi.sourceforge.net/DTD/sodipodi-0.dtd"
        xmlns:inkscape="http://www.inkscape.org/namespaces/inkscape"
        version="1.1"
        viewBox="0 0 48 48"
        style="enable-background:new 0 0 48 48;"
        xml:space="preserve"
        id="svg4178"
        inkscape:version="0.91 r13725"
        sodipodi:docname="thumbs-down.svg"><metadata
     id="metadata4191"><rdf:RDF><cc:Work
         rdf:about=""><dc:format>image/svg+xml</dc:format><dc:type
        rdf:resource="http://purl.org/dc/dcmitype/StillImage"/></cc:Work></rdf:RDF></metadata>
    <defs
            id="defs4189"/>
    <sodipodi:namedview
            pagecolor="#ffffff"
            bordercolor="#666666"
            borderopacity="1"
            objecttolerance="10"
            gridtolerance="10"
            guidetolerance="10"
            inkscape:pageopacity="0"
            inkscape:pageshadow="2"
            inkscape:window-width="1920"
            inkscape:window-height="1030"
            id="namedview4187"
            showgrid="false"
            inkscape:zoom="4.9166667"
            inkscape:cx="24"
            inkscape:cy="24"
            inkscape:window-x="0"
            inkscape:window-y="0"
            inkscape:window-maximized="1"
            inkscape:current-layer="svg4178"/>
    <g
            id="glyphicons"
            transform="matrix(2,0,0,2,-24,-25)"><g
       id="thumbs-down"><polygon
         style="opacity:0.3"
         points="32,25 34,25 34,23 33,22 29,16 27,16 27,18 "
         id="polygon4182" /><path
            d="m 29,16 4,6 1,1 0,2 -9,0 1,5 0,3 -1,0 -2,-4 -3,-4 0,-8 2,0 2,-1 5,0 m 0,-2 -5,0 c -0.311,0 -0.617,0.072 -0.895,0.211 L 21.528,15 20,15 c -1.105,0 -2,0.896 -2,2 l 0,8 c 0,0.433 0.14,0.854 0.4,1.2 l 2.892,3.856 1.919,3.839 C 23.55,34.572 24.243,35 25,35 l 1,0 c 1.104,0 2,-0.896 2,-2 l 0,-3 c 0,-0.132 -0.013,-0.264 -0.039,-0.393 L 27.439,27 34,27 c 1.104,0 2,-0.896 2,-2 l 0,-2 c 0,-0.53 -0.211,-1.039 -0.586,-1.414 l -0.86,-0.86 -3.89,-5.835 C 30.293,14.334 29.669,14 29,14 l 0,0 z m -13,1 -4,0 0,13 4,0 c 0.55,0 1,-0.45 1,-1 l 0,-11 c 0,-0.55 -0.45,-1 -1,-1 z"
            id="path4184"
            inkscape:connector-curvature="0"/></g></g>
    <g
            id="Layer_2"/></svg>